FCSC/Challenges/hardware/keypadbol/capture.vcd
$timescale 1ns $end
$scope module logic $end
$var wire 1 ! D0 $end
$var wire 1 " D1 $end
$var wire 1 # D2 $end
$var wire 1 $ D3 $end
$var wire 1 % D4 $end
$var wire 1 & D5 $end
$var wire 1 ' D6 $end
$var wire 1 ( D7 $end
$upscope $end
$enddefinitions $end
#0
0!
#0
0"
#0
0#
#0
0$
#0
0%
#0
0&
#0
0'
#0
0(
#11435062
1$
#11440687
1'
#11446312
1!
#11451937
1&
#11497250
1(
#11545250
1#
#11550250
0#
#11596437
1%
#11601437
0%
#11645312
1"
#11650312
0"
#22722062
0(
#22761687
1(
#22766687
0(
#22809687
1#
#22814687
0#
#22860875
1%
#22865875
0%
#22909750
1"
#34026125
1(
#34031125
0(
#34074125
1#
#34079125
0#
#34125312
1%
#34130312
0%
#34135625
0"
#34174187
1"
#34179187
0"
#44264875
1(
#44312875
1#
#44317875
0#
#44364062
1%
#44369062
0%
#44412937
1"
#44417937
0"
#55489687
0(
#55529312
1(
#55534312
0(
#55577312
1#
#55628500
1%
#55677375
1"
#66793750
1(
#66798750
0(
#66804062
0#
#66841750
1#
#66846750
0#
#66852062
0%
#66892937
1%
#66903250
0"
#66941812
1"
#66946812
0"
#78058187
1(
#78063187
0(
#78106187
1#
#78116500
0%
#78157375
1%
#78206250
1"
#88296937
1(
#88301937
0(
#88307250
0#
#88344937
1#
#88349937
0#
#88355250
0%
#88396125
1%
#88406437
0"
#88445000
1"
#99561375
1(
#99566375
0(
#99609375
1#
#99619687
0%
#99660562
1%
#99670875
0"
#99709437
1"
#99714437
0"
#110825812
1(
#110830812
0(
#110836125
0#
#110873812
1#
#110884125
0%
#110925000
1%
#110973875
1"
#110978875
0"
#122090250
1(
#122095250
0(
#122100562
0#
#122138250
1#
#122143250
0#
#122148562
0%
#122189437
1%
#122238312
1"
#122243312
0"
#132329000
1(
#132334000
0(
#132377000
1#
#132382000
0#
#132387312
0%
#132428187
1%
#132433187
0%
#132477062
1"
#132482062
0"
#143593437
1(
#143641437
1#
#143692625
1%
#143741500
1"
#143746500
0"
#154818250
0(
#154857875
1(
#154862875
0(
#154868187
0#
#154905875
1#
#154916187
0%
#154957062
1%
#154962062
0%
#155005937
1"
#155010937
0"
#166122312
1(
#166127312
0(
#166132625
0#
#166170312
1#
#166175312
0#
#166221500
1%
#166270375
1"
#166275375
0"
#176361062
1(
#176366062
0(
#176409062
1#
#176419375
0%
#176460250
1%
#176509125
1"
#187625500
1(
#187630500
0(
#187635812
0#
#187673500
1#
#187683812
0%
#187724687
1%
#187729687
0%
#187735000
0"
#187773562
1"
#198889937
1(
#198894937
0(
#198900250
0#
#198937937
1#
#198942937
0#
#198989125
1%
#198994125
0%
#198999437
0"
#199038000
1"
#199043000
0"
#210154375
1(
#210202375
1#
#210253562
1%
#210258562
0%
#210302437
1"
#210307437
0"
#220353500
0(
#220393125
1(
#220398125
0(
#220403437
0#
#220441125
1#
#220446125
0#
#220492312
1%
#220497312
0%
#220541187
1"
#220546187
0"
#231657562
1(
#231705562
1#
#231710562
0#
#231756750
1%
#231805625
1"
#242882375
0(
#242922000
1(
#242927000
0(
#242970000
1#
#242980312
0%
#243021187
1%
#243026187
0%
#243031500
0"
#243070062
1"
#254186437
1(
#254191437
0(
#254196750
0#
#254234437
1#
#254239437
0#
#254285625
1%
#254290625
0%
#254295937
0"
#254334500
1"
#264425187
1(
#264473187
1#
#264478187
0#
#264524374
1%
#264534687
0"
#264573249
1"
#275650000
0(
#275689625
1(
#275737625
1#
#275747937
0%
#275788812
1%
#275793812
0%
#275799125
0"
#275837687
1"
#286914437
0(
#286954062
1(
#286959062
0(
#286964375
0#
#287002062
1#
#287007062
0#
#287053250
1%
#287063562
0"
#287102125
1"
#298218500
1(
#298266500
1#
#298276812
0%
#298317687
1%
#298322687
0%
#298328000
0"
#298366562
1"
#308417625
0(
#308457250
1(
#308467562
0#
#308505250
1#
#308510250
0#
#308556437
1%
#308561437
0%
#308566750
0"
#308605312
1"
#319682062
0(
#319721687
1(
#319769687
1#
#319820875
1%
#319825875
0%
#319831187
0"
#319869750
1"
#330946500
0(
#330986125
1(
#330996437
0#
#331034125
1#
#331085312
1%
#331095625
0"
#331134187
1"
#331139187
0"
#342211250
0(
#342250875
1(
#342255875
0(
#342261187
0#
#342298875
1#
#342303875
0#
#342309187
0%
#342350062
1%
#342355062
0%
#342398937
1"
#342403937
0"
#353515312
1(
#353563312
1#
#353568312
0#
#353614500
1%
#353663375
1"
#364740125
0(
#364779750
1(
#364827750
1#
#364838062
0%
#364878937
1%
#364883937
0%
#364889250
0"
#364927812
1"
#376001562
0(
#376041187
1(
#376051500
0#
#376089187
1#
#376140375
1%
#376145375
0%
#376150687
0"
#376189250
1"
#386243312
0(
#386282937
1(
#386287937
0(
#386293250
0#
#386330937
1#
#386335937
0#
#386382125
1%
#386387125
0%
#386392437
0"
#386431000
1"
#397547375
1(
#397552375
0(
#397595375
1#
#397600375
0#
#397646562
1%
#397651562
0%
#397656875
0"
#397695437
1"
#397700437
0"
#408811812
1(
#408859812
1#
#408911000
1%
#408959875
1"
#420033625
0(
#420073250
1(
#420078250
0(
#420083562
0#
#420121250
1#
#420131562
0%
#420172437
1%
#420182750
0"
#420221312
1"
#420226312
0"
#430315000
1(
#430325312
0#
#430363000
1#
#430373312
0%
#430414187
1%
#430419187
0%
#430463062
1"
#441539812
0(
#441579437
1(
#441589750
0#
#441627437
1#
#441678625
1%
#441688937
0"
#441727500
1"
#452801250
0(
#452840875
1(
#452845875
0(
#452851187
0#
#452888875
1#
#452899187
0%
#452940062
1%
#452950375
0"
#452988937
1"
#452993937
0"
#464105312
1(
#464115625
0#
#464153312
1#
#464163625
0%
#464204500
1%
#464209500
0%
#464253375
1"
#474307437
0(
#474347062
1(
#474357375
0#
#474395062
1#
#474446250
1%
#474451250
0%
#474456562
0"
#474495125
1"
#474500125
0"
#485571875
0(
#485611500
1(
#485616500
0(
#485621812
0#
#485659500
1#
#485664500
0#
#485710687
1%
#485715687
0%
#485759562
1"
#496872937
1(
#496877937
0(
#496920937
1#
#496925937
0#
#496972125
1%
#496982437
0"
#497021000
1"
#497026000
0"
#508137375
1(
#508185375
1#
#508195687
0%
#508236562
1%
#508241562
0%
#508285437
1"
#518339499
0(
#518379125
1(
#518384125
0(
#518389437
0#
#518427125
1#
#518478312
1%
#518483312
0%
#518488625
0"
#518527187
1"
#529643562
1(
#529653875
0#
#529691562
1#
#529696562
0#
#529742750
1%
#529747749
0%
#529753062
0"
#529791625
1"
#540865375
0(
#540905000
1(
#540953000
1#
#541004187
1%
#541014500
0"
#541053062
1"
#541058062
0"
#552129812
0(
#552169437
1(
#552174437
0(
#552179750
0#
#552217437
1#
#552222437
0#
#552227750
0%
#552268625
1%
#552317500
1"
#562411187
1(
#562459187
1#
#562469500
0%
#562510375
1%
#562515375
0%
#562520687
0"
#562559250
1"
#573636000
0(
#573675625
1(
#573680625
0(
#573685937
0#
#573723625
1#
#573728625
0#
#573774812
1%
#573785125
0"
#573823687
1"
#584937062
1(
#584942062
0(
#584985062
1#
#584990062
0#
#584995375
0%
#585036250
1%
#585046562
0"
#585085125
1"
#596201500
1(
#596249500
1#
#596259812
0%
#596300687
1%
#596305687
0%
#596311000
0"
#596349562
1"
#606403625
0(
#606443250
1(
#606453562
0#
#606491250
1#
#606496250
0#
#606542437
1%
#606552750
0"
#606591312
1"
#617668062
0(
#617707687
1(
#617755687
1#
#617766000
0%
#617806875
1%
#617811875
0%
#617817187
0"
#617855750
1"
#628929500
0(
#628969125
1(
#628974125
0(
#628979437
0#
#629017125
1#
#629068312
1%
#629078625
0"
#629117187
1"
#629122187
0"
#640233875
1(
#640238875
0(
#640244187
0#
#640281875
1#
#640292187
0%
#640333062
1%
#640338062
0%
#640381937
1"
#640386937
0"
#651498312
1(
#651503312
0(
#651508625
0#
#651546312
1#
#651597500
1%
#651646375
1"
#651651375
0"
#662762750
1(
#662767750
0(
#662773062
0#
#662810750
1#
#662815750
0#
#662821062
0%
#662861937
1%
#662866937
0%
#662910812
1"
#674027187
1(
#674075187
1#
#674080187
0#
#674126375
1%
#674136687
0"
#674175250
1"
#674180250
0"
#684226312
0(
#684265937
1(
#684313937
1#
#684324250
0%
#684365125
1%
#684414000
1"
#695490750
0(
#695530375
1(
#695540687
0#
#695578375
1#
#695583375
0#
#695588687
0%
#695629562
1%
#695639875
0"
#695678437
1"
#706755187
0(
#706794812
1(
#706842812
1#
#706853125
0%
#706894000
1%
#706904312
0"
#706942875
1"
#706947875
0"
#718019625
0(
#718059250
1(
#718069562
0#
#718107250
1#
#718117562
0%
#718158437
1%
#718163437
0%
#718207312
1"
#718212312
0"
#728258375
0(
#728298000
1(
#728303000
0(
#728308312
0#
#728346000
1#
#728397187
1%
#728446062
1"
#728451062
0"
#739562437
1(
#739572750
0#
#739610437
1#
#739620750
0%
#739661625
1%
#739710500
1"
#739715500
0"
#750787250
0(
#750826875
1(
#750831875
0(
#750837187
0#
#750874875
1#
#750885187
0%
#750926062
1%
#750931062
0%
#750974937
1"
#762091312
1(
#762101625
0#
#762139312
1#
#762190500
1%
#762200812
0"
#762239375
1"
#772290437
0(
#772330062
1(
#772340375
0#
#772378062
1#
#772388375
0%
#772429250
1%
#772434250
0%
#772439562
0"
#772478125
1"
#783554875
0(
#783594500
1(
#783604812
0#
#783642500
1#
#783647500
0#
#783693687
1%
#783704000
0"
#783742562
1"
#783747562
0"
#794819312
0(
#794858937
1(
#794906937
1#
#794917250
0%
#794958125
1%
#795007000
1"
#806083750
0(
#806123375
1(
#806128375
0(
#806133687
0#
#806171375
1#
#806181687
0%
#806222562
1%
#806227562
0%
#806232875
0"
#806271437
1"
#806276437
0"
#816362125
1(
#816372437
0#
#816410125
1#
#816461312
1%
#816466312
0%
#816510187
1"
#816515187
0"
#827586937
0(
#827626562
1(
#827631562
0(
#827636875
0#
#827674562
1#
#827679562
0#
#827725750
1%
#827730750
0%
#827774625
1"
#838891000
1(
#838896000
0(
#838939000
1#
#838944000
0#
#838990187
1%
#839000500
0"
#839039062
1"
#850155437
1(
#850160437
0(
#850203437
1#
#850213750
0%
#850254625
1%
#850264937
0"
#850303500
1"
#850308500
0"
#860394187
1(
#860404500
0#
#860442187
1#
#860452500
0%
#860493375
1%
#860542250
1"
#860547250
0"
#871619000
0(
#871658625
1(
#871668937
0#
#871706625
1#
#871716937
0%
#871757812
1%
#871806687
1"
#882883437
0(
#882923062
1(
#882928062
0(
#882933375
0#
#882971062
1#
#882981375
0%
#883022250
1%
#883027250
0%
#883032562
0"
#883071125
1"
#894187500
1(
#894192500
0(
#894197812
0#
#894235500
1#
#894286687
1%
#894297000
0"
#894335562
1"
#894340562
0"
#904426250
1(
#904431250
0(
#904436562
0#
#904474250
1#
#904479250
0#
#904484562
0%
#904525437
1%
#904574312
1"
#915690687
1(
#915695687
0(
#915738687
1#
#915743687
0#
#915749000
0%
#915789875
1%
#915794875
0%
#915800187
0"
#915838750
1"
#926955125
1(
#926960125
0(
#927003125
1#
#927054312
1%
#927059312
0%
#927064625
0"
#927103187
1"
#938219562
1(
#938229875
0#
#938267562
1#
#938272562
0#
#938318750
1%
#938329062
0"
#938367625
1"
#948418687
0(
#948458312
1(
#948463312
0(
#948506312
1#
#948511312
0#
#948516625
0%
#948557500
1%
#948562500
0%
#948567812
0"
#948606375
1"
#948611375
0"
#950028125
1(
#959683125
0(
#959683125
0&
#959722562
1(
#959722562
1&
#959770562
1#
#959775562
0#
#959821750
1%
#959826750
0%
#959870625
1"
#970945375
0(
#970945375
0&
#970984812
1(
#970984812
1&
#971032812
1#
#971084000
1%
#971089000
0%
#971094312
0"
#971132875
1"
#982209937
0(
#982209937
0&
#982249375
1(
#982249375
1&
#982259687
0#
#982297375
1#
#982302375
0#
#982348562
1%
#982358875
0"
#982397437
1"
#982402437
0"
#993474187
0(
#993474187
0&
#993513625
1(
#993513625
1&
#993561625
1#
#993571937
0%
#993612812
1%
#993617812
0%
#993661687
1"
#1004738437
0(
#1004738437
0&
#1004777875
1(
#1004777875
1&
#1004788187
0#
#1004825875
1#
#1004830874
0#
#1004877062
1%
#1004882062
0%
#1004887375
0"
#1004925937
1"
#1016002687
0(
#1016002687
0&
#1016042125
1(
#1016042125
1&
#1016090125
1#
#1016141312
1%
#1016151625
0"
#1016190187
1"
#1026241250
0(
#1026241250
0&
#1026280687
1(
#1026280687
1&
#1026291000
0#
#1026328687
1#
#1026333687
0#
#1026338999
0%
#1026379875
1%
#1026384875
0%
#1026390187
0"
#1026428750
1"
#1037505500
0(
#1037505500
0&
#1037544937
1(
#1037544937
1&
#1037592937
1#
#1037597937
0#
#1037644124
1%
#1037654437
0"
#1037693000
1"
#1037698000
0"
#1048769750
0(
#1048769750
0&
#1048809187
1(
#1048809187
1&
#1048857187
1#
#1048862187
0#
#1048867500
0%
#1048908374
1%
#1048913374
0%
#1048957250
1"
#1048962250
0"
#1060033999
0(
#1060033999
0&
#1060073437
1(
#1060073437
1&
#1060121437
1#
#1060172625
1%
#1060221499
1"
#1060226500
0"
#1066702500
0(
#1070315187
1(
#1070320187
0(
#1070325500
0#
#1070363187
1#
#1070368187
0#
#1070373500
0%
#1070414374
1%
#1070463250
1"
#1081579812
1(
#1081627812
1#
#1081638125
0%
#1081679000
1%
#1081684000
0%
#1081689312
0"
#1081727875
1"
#1092803062
0(
#1092842687
1(
#1092853000
0#
#1092890687
1#
#1092941875
1%
#1092946875
0%
#1092952187
0"
#1092990750
1"
#1104067500
0(
#1104107125
1(
#1104117437
0#
#1104155125
1#
#1104206312
1%
#1104211312
0%
#1104216625
0"
#1104255187
1"
#1114306250
0(
#1114345875
1(
#1114350875
0(
#1114356187
0#
#1114393875
1#
#1114398875
0#
#1114445062
1%
#1114455375
0"
#1114493937
1"
#1125610312
1(
#1125615312
0(
#1125658312
1#
#1125668625
0%
#1125709500
1%
#1125714500
0%
#1125719812
0"
#1125758375
1"
#1125763375
0"
#1136874750
1(
#1136885062
0#
#1136922750
1#
#1136973937
1%
#1136978937
0%
#1137022812
1"
#1137027812
0"
#1148099562
0(
#1148139187
1(
#1148149500
0#
#1148187187
1#
#1148192187
0#
#1148238375
1%
#1148287250
1"
#1158338312
0(
#1158377937
1(
#1158382937
0(
#1158425937
1#
#1158430937
0#
#1158436250
0%
#1158477125
1%
#1158482125
0%
#1158487437
0"
#1158526000
1"
#1169642375
1(
#1169647375
0(
#1169690375
1#
#1169741562
1%
#1169751875
0"
#1169790437
1"
#1169795437
0"
#1180906812
1(
#1180917125
0#
#1180954812
1#
#1180965125
0%
#1181006000
1%
#1181054875
1"
#1181059875
0"
#1192131625
0(
#1192171250
1(
#1192176250
0(
#1192181562
0#
#1192219250
1#
#1192229562
0%
#1192270437
1%
#1192275437
0%
#1192319312
1"
#1192324312
0"
#1202410000
1(
#1202420312
0#
#1202458000
1#
#1202509187
1%
#1202514187
0%
#1202558062
1"
#1213634812
0(
#1213674437
1(
#1213679437
0(
#1213684750
0#
#1213722437
1#
#1213727437
0#
#1213773625
1%
#1213778625
0%
#1213783937
0"
#1213822500
1"
#1224938875
1(
#1224986875
1#
#1224991875
0#
#1225038062
1%
#1225043062
0%
#1225048375
0"
#1225086937
1"
#1236163687
0(
#1236203312
1(
#1236251312
1#
#1236302500
1%
#1236312812
0"
#1236351375
1"
#1246402437
0(
#1246442062
1(
#1246447062
0(
#1246452375
0#
#1246490062
1#
#1246495062
0#
#1246500375
0%
#1246541250
1%
#1246551562
0"
#1246590125
1"
#1246595125
0"
#1257706500
1(
#1257754500
1#
#1257759500
0#
#1257764812
0%
#1257805687
1%
#1257810687
0%
#1257854562
1"
#1268931312
0(
#1268970937
1(
#1269018937
1#
#1269023937
0#
#1269070125
1%
#1269080437
0"
#1269119000
1"
#1269124000
0"
#1280196062
0(
#1280235687
1(
#1280283687
1#
#1280288687
0#
#1280294000
0%
#1280334875
1%
#1280383750
1"
#1291457500
0(
#1291497125
1(
#1291545125
1#
#1291555437
0%
#1291596312
1%
#1291606625
0"
#1291645187
1"
#1302721937
0(
#1302761562
1(
#1302766562
0(
#1302771875
0#
#1302809562
1#
#1302814562
0#
#1302819875
0%
#1302860750
1%
#1302865750
0%
#1302871062
0"
#1302909625
1"
#1302914625
0"
#1314026000
1(
#1314074000
1#
#1314079000
0#
#1314125187
1%
#1314130187
0%
#1314174062
1"
#1314179062
0"
#1324228125
0(
#1324267750
1(
#1324315750
1#
#1324366937
1%
#1324371937
0%
#1324415812
1"
#1335489562
0(
#1335529187
1(
#1335534187
0(
#1335539500
0#
#1335577187
1#
#1335582187
0#
#1335628375
1%
#1335638687
0"
#1335677250
1"
#1335682250
0"
#1346793625
1(
#1346841625
1#
#1346846625
0#
#1346851937
0%
#1346892812
1%
#1346941687
1"
#1346946687
0"
#1358018437
0(
#1358058062
1(
#1358063062
0(
#1358106062
1#
#1358111062
0#
#1358116375
0%
#1358157250
1%
#1358206125
1"
#1358211125
0"
#1368299812
1(
#1368304812
0(
#1368347812
1#
#1368358125
0%
#1368399000
1%
#1368404000
0%
#1368447875
1"
#1368452875
0"
#1379561250
1(
#1379571562
0#
#1379609250
1#
#1379660437
1%
#1379709312
1"
#1379714312
0"
#1390786062
0(
#1390825687
1(
#1390836000
0#
#1390873687
1#
#1390884000
0%
#1390924875
1%
#1390973750
1"
#1390978750
0"
#1402050500
0(
#1402090125
1(
#1402100437
0#
#1402138125
1#
#1402148437
0%
#1402189312
1%
#1402194312
0%
#1402238187
1"
#1402243187
0"
#1412289250
0(
#1412328875
1(
#1412339187
0#
#1412376875
1#
#1412428062
1%
#1412433062
0%
#1412476937
1"
#1412481937
0"
#1423553687
0(
#1423593312
1(
#1423603625
0#
#1423641312
1#
#1423646312
0#
#1423692500
1%
#1423741375
1"
#1423746375
0"
#1434818125
0(
#1434857750
1(
#1434905750
1#
#1434916062
0%
#1434956937
1%
#1434961937
0%
#1435005812
1"
#1446082562
0(
#1446122187
1(
#1446127187
0(
#1446132500
0#
#1446170187
1#
#1446175187
0#
#1446221375
1%
#1446231687
0"
#1446270250
1"
#1456360937
1(
#1456408937
1#
#1456419250
0%
#1456460125
1%
#1456465125
0%
#1456470437
0"
#1456509000
1"
#1467585750
0(
#1467625375
1(
#1467630375
0(
#1467635687
0#
#1467673375
1#
#1467678375
0#
#1467724562
1%
#1467729562
0%
#1467734875
0"
#1467773437
1"
#1467778437
0"
#1478889812
1(
#1478894812
0(
#1478937812
1#
#1478942812
0#
#1478989000
1%
#1478994000
0%
#1479037875
1"
#1479042875
0"
#1490154250
1(
#1490202250
1#
#1490253437
1%
#1490302312
1"
#1500353375
0(
#1500393000
1(
#1500403312
0#
#1500441000
1#
#1500451312
0%
#1500492187
1%
#1500502500
0"
#1500541062
1"
#1511617812
0(
#1511657437
1(
#1511667750
0#
#1511705437
1#
#1511710437
0#
#1511715750
0%
#1511756625
1%
#1511761625
0%
#1511766937
0"
#1511805500
1"
#1511810500
0"
#1522882250
0(
#1522921875
1(
#1522926875
0(
#1522969875
1#
#1522974875
0#
#1523021062
1%
#1523069937
1"
#1534186312
1(
#1534191312
0(
#1534234312
1#
#1534244625
0%
#1534285500
1%
#1534290500
0%
#1534295812
0"
#1534334375
1"
#1544425062
1(
#1544435375
0#
#1544473062
1#
#1544478062
0#
#1544524250
1%
#1544529250
0%
#1544534562
0"
#1544573125
1"
#1544578125
0"
#1555649875
0(
#1555689500
1(
#1555694500
0(
#1555737500
1#
#1555788687
1%
#1555837562
1"
#1566953937
1(
#1566964250
0#
#1567001937
1#
#1567006937
0#
#1567012250
0%
#1567053125
1%
#1567063437
0"
#1567102000
1"
#1578178750
0(
#1578218375
1(
#1578223375
0(
#1578266375
1#
#1578276687
0%
#1578317562
1%
#1578322562
0%
#1578327875
0"
#1578366437
1"
#1588457125
1(
#1588467437
0#
#1588505125
1#
#1588556312
1%
#1588566625
0"
#1588605187
1"
#1599681937
0(
#1599721562
1(
#1599726562
0(
#1599731875
0#
#1599769562
1#
#1599774562
0#
#1599779875
0%
#1599820750
1%
#1599831062
0"
#1599869625
1"
#1610986000
1(
#1611034000
1#
#1611039000
0#
#1611044312
0%
#1611085187
1%
#1611090187
0%
#1611095500
0"
#1611134062
1"
#1611139062
0"
#1622211125
0(
#1622250750
1(
#1622298750
1#
#1622303750
0#
#1622349937
1%
#1622354937
0%
#1622398812
1"
#1633475562
0(
#1633515187
1(
#1633520187
0(
#1633563187
1#
#1633614375
1%
#1633624687
0"
#1633663250
1"
#1633668250
0"
#1644779625
1(
#1644784625
0(
#1644789937
0#
#1644827625
1#
#1644837937
0%
#1644878812
1%
#1644883812
0%
#1644927687
1"
#1644932687
0"
#1656041062
1(
#1656051375
0#
#1656089062
1#
#1656094062
0#
#1656140250
1%
#1656145250
0%
#1656189125
1"
#1656194125
0"
#1666243187
0(
#1666282812
1(
#1666330812
1#
#1666335812
0#
#1666382000
1%
#1666430875
1"
#1666435875
0"
#1677507625
0(
#1677547250
1(
#1677552250
0(
#1677595250
1#
#1677600250
0#
#1677605562
0%
#1677646437
1%
#1677695312
1"
#1688811687
1(
#1688859687
1#
#1688870000
0%
#1688910875
1%
#1688915875
0%
#1688921187
0"
#1688959750
1"
#1688964750
0"
#1700033500
0(
#1700073125
1(
#1700078125
0(
#1700083437
0#
#1700121125
1#
#1700126125
0#
#1700172312
1%
#1700221187
1"
#1700226187
0"
#1710314875
1(
#1710319875
0(
#1710362875
1#
#1710373187
0%
#1710414062
1%
#1710462937
1"
#1710467937
0"
#1721579312
1(
#1721584312
0(
#1721589625
0#
#1721627312
1#
#1721632312
0#
#1721637625
0%
#1721678500
1%
#1721727375
1"
#1721732375
0"
#1732843750
1(
#1732891750
1#
#1732902062
0%
#1732942937
1%
#1732991812
1"
#1744065562
0(
#1744105187
1(
#1744110187
0(
#1744115500
0#
#1744115500
0&
#1744153000
1#
#1744153000
1&
#1744163312
0%
#1744204187
1%
#1744209187
0%
#1744214500
0"
#1744253062
1"
#1754347750
1(
#1754358062
0#
#1754358062
0&
#1754395562
1#
#1754395562
1&
#1754446750
1%
#1754457062
0"
#1754495625
1"
#1754500625
0"
#1765569375
0(
#1765609000
1(
#1765614000
0(
#1765619312
0#
#1765619312
0&
#1765656812
1#
#1765656812
1&
#1765667125
0%
#1765708000
1%
#1765713000
0%
#1765756875
1"
#1776873250
1(
#1776878250
0(
#1776883562
0#
#1776883562
0&
#1776921062
1#
#1776921062
1&
#1776972250
1%
#1776982562
0"
#1777021125
1"
#1777026125
0"
#1788137500
1(
#1788142500
0(
#1788147812
0#
#1788147812
0&
#1788185312
1#
#1788185312
1&
#1788195625
0%
#1788236500
1%
#1788241500
0%
#1788285375
1"
#1788290375
0"
#1798379062
1(
#1798389375
0#
#1798389375
0&
#1798426875
1#
#1798426875
1&
#1798478062
1%
#1798526937
1"
#1809603687
0(
#1809643312
1(
#1809653625
0#
#1809653625
0&
#1809691125
1#
#1809691125
1&
#1809701437
0%
#1809742312
1%
#1809752625
0"
#1809791187
1"
#1809796187
0"
#1816739500
0#
#1820867937
0(
#1820907562
1(
#1820955562
1#
#1820960562
0#
#1820965875
0%
#1821006750
1%
#1821011750
0%
#1821055625
1"
#1832129562
0(
#1832169187
1(
#1832217187
1#
#1832268375
1%
#1832273375
0%
#1832278687
0"
#1832317250
1"
#1832322250
0"
#1842369750
0(
#1842409375
1(
#1842419687
0#
#1842457375
1#
#1842508562
1%
#1842513562
0%
#1842557437
1"
#1842562437
0"
#1853634187
0(
#1853673812
1(
#1853678812
0(
#1853684125
0#
#1853721812
1#
#1853773000
1%
#1853821875
1"
#1864938250
1(
#1864948562
0#
#1864986250
1#
#1864991250
0#
#1864996562
0%
#1865037437
1%
#1865042437
0%
#1865047750
0"
#1865086312
1"
#1865091312
0"
#1876163062
0(
#1876202687
1(
#1876250687
1#
#1876255687
0#
#1876301875
1%
#1876350750
1"
#1886401812
0(
#1886441437
1(
#1886446437
0(
#1886489437
1#
#1886499750
0%
#1886540625
1%
#1886545625
0%
#1886550937
0"
#1886589500
1"
#1897705875
1(
#1897710875
0(
#1897716187
0#
#1897753875
1#
#1897805062
1%
#1897815375
0"
#1897853937
1"
#1908970312
1(
#1908980625
0#
#1909018312
1#
#1909028625
0%
#1909069500
1%
#1909074500
0%
#1909079812
0"
#1909118375
1"
#1920195437
0(
#1920235062
1(
#1920240062
0(
#1920245375
0#
#1920283062
1#
#1920334250
1%
#1920339250
0%
#1920344562
0"
#1920383125
1"
#1920388125
0"
#1931499500
1(
#1931509812
0#
#1931547500
1#
#1931552500
0#
#1931598687
1%
#1931603687
0%
#1931647562
1"
#1931652562
0"
#1942721312
0(
#1942760937
1(
#1942808937
1#
#1942813937
0#
#1942860125
1%
#1942909000
1"
#1942914000
0"
#1953985750
0(
#1954025375
1(
#1954073375
1#
#1954083687
0%
#1954124562
1%
#1954173437
1"
#1964227500
0(
#1964267125
1(
#1964272125
0(
#1964277437
0#
#1964315125
1#
#1964325437
0%
#1964366312
1%
#1964376625
0"
#1964415187
1"
#1975531562
1(
#1975541875
0#
#1975579562
1#
#1975589875
0%
#1975630750
1%
#1975641062
0"
#1975679625
1"
#1975684625
0"
#1986753375
0(
#1986793000
1(
#1986798000
0(
#1986803312
0#
#1986841000
1#
#1986846000
0#
#1986851312
0%
#1986892187
1%
#1986941062
1"
#1998057437
1(
#1998105437
1#
#1998115750
0%
#1998156625
1%
#1998161625
0%
#1998166937
0"
#1998205500
1"
#1998210500
0"
#2008259562
0(
#2008299187
1(
#2008309500
0#
#2008347187
1#
#2008352187
0#
#2008398375
1%
#2008447250
1"
#2019524000
0(
#2019563625
1(
#2019611625
1#
#2019621937
0%
#2019662812
1%
#2019667812
0%
#2019673125
0"
#2019711687
1"
#2019716687
0"
#2030785437
0(
#2030825062
1(
#2030835375
0#
#2030873062
1#
#2030924250
1%
#2030929249
0%
#2030973125
1"
#2042049875
0(
#2042089500
1(
#2042099812
0#
#2042137500
1#
#2042188687
1%
#2042193687
0%
#2042199000
0"
#2042237562
1"
#2052291625
0(
#2052331250
1(
#2052336250
0(
#2052341562
0#
#2052379250
1#
#2052384249
0#
#2052430437
1%
#2052435437
0%
#2052440750
0"
#2052479312
1"
#2052484312
0"
#2063595687
1(
#2063643687
1#
#2063694875
1%
#2063743750
1"
#2063748749
0"
#2074817500
0(
#2074857124
1(
#2074862125
0(
#2074867437
0#
#2074905125
1#
#2074915437
0%
#2074956312
1%
#2074961312
0%
#2075005187
1"
#2086121562
1(
#2086126562
0(
#2086131875
0#
#2086169562
1#
#2086220749
1%
#2086225750
0%
#2086231062
0"
#2086269625
1"
#2096363312
1(
#2096368312
0(
#2096373625
0#
#2096411312
1#
#2096462500
1%
#2096467500
0%
#2096472812
0"
#2096511375
1"
#2107627749
1(
#2107638062
0#
#2107675749
1#
#2107680750
0#
#2107726937
1%
#2107737250
0"
#2107775812
1"
#2107780812
0"
#2118849562
0(
#2118889187
1(
#2118894187
0(
#2118937187
1#
#2118947500
0%
#2118988374
1%
#2119037249
1"
#2119042250
0"
#2130153625
1(
#2130163937
0#
#2130201625
1#
#2130211937
0%
#2130252812
1%
#2130301687
1"
#2130306687
0"
#2140355750
0(
#2140395375
1(
#2140400375
0(
#2140405687
0#
#2140443374
1#
#2140453687
0%
#2140494562
1%
#2140499562
0%
#2140543437
1"
#2151659812
1(
#2151664812
0(
#2151670125
0#
#2151707812
1#
#2151759000
1%
#2151764000
0%
#2151769312
0"
#2151807875
1"
#2162921250
1(
#2162926250
0(
#2162931562
0#
#2162969250
1#
#2163020437
1%
#2163025437
0%
#2163030750
0"
#2163069312
1"
#2163074312
0"
#2174185687
1(
#2174196000
0#
#2174233687
1#
#2174284875
1%
#2174333750
1"
#2184387812
0(
#2184427437
1(
#2184437750
0#
#2184475437
1#
#2184480437
0#
#2184485750
0%
#2184526625
1%
#2184536937
0"
#2184575500
1"
#2195649250
0(
#2195688875
1(
#2195693875
0(
#2195736875
1#
#2195741875
0#
#2195747187
0%
#2195788062
1%
#2195793062
0%
#2195798375
0"
#2195836937
1"
#2195841937
0"
#2206953312
1(
#2206958312
0(
#2207001312
1#
#2207052500
1%
#2207101375
1"
#2218217750
1(
#2218228062
0#
#2218265750
1#
#2218276062
0%
#2218316937
1%
#2218327250
0"
#2218365812
1"
#2218370812
0"
#2228419875
0(
#2228459500
1(
#2228464500
0(
#2228469812
0#
#2228507500
1#
#2228512500
0#
#2228517812
0%
#2228558687
1%
#2228563687
0%
#2228607562
1"
#2228612562
0"
#2239720937
1(
#2239768937
1#
#2239773937
0#
#2239820125
1%
#2239869000
1"
#2239874000
0"
#2250945750
0(
#2250985375
1(
#2250990375
0(
#2251033375
1#
#2251043687
0%
#2251084562
1%
#2251089562
0%
#2251133437
1"
#2262250125
1(
#2262255125
0(
#2262260437
0#
#2262298125
1#
#2262303125
0#
#2262349312
1%
#2262354312
0%
#2262359625
0"
#2262398187
1"
#2262403187
0"
#2273514562
1(
#2273519562
0(
#2273562562
1#
#2273567562
0#
#2273613750
1%
#2273618750
0%
#2273662625
1"
#2273667625
0"
#2284779000
1(
#2284784000
0(
#2284827000
1#
#2284878187
1%
#2284927062
1"
#2284932062
0"
#2296043437
1(
#2296048437
0(
#2296053750
0#
#2296091437
1#
#2296101750
0%
#2296142625
1%
#2296191500
1"
#2306282187
1(
#2306287187
0(
#2306292500
0#
#2306330187
1#
#2306335187
0#
#2306340500
0%
#2306381375
1%
#2306391687
0"
#2306430250
1"
#2317546625
1(
#2317551625
0(
#2317594625
1#
#2317599625
0#
#2317604937
0%
#2317645812
1%
#2317656125
0"
#2317694687
1"
#2317699687
0"
#2328811062
1(
#2328816062
0(
#2328859062
1#
